srff_user_defined_primitive/tb_srff_udp.vcd
$date
	Fri Aug 22 16:40:57 2025
$end
$version
	Icarus Verilog
$end
$timescale
	1ps
$end
$scope module tb_srff_udp $end
$scope module uut $end
$var wire 1 ! clk $end
$var wire 1 " q $end
$var wire 1 # r $end
$var wire 1 $ s $end
$upscope $end
$upscope $end
$enddefinitions $end
$comment Show the parameter values. $end
$dumpall
$end
#0
$dumpvars
0$
0#
x"
0!
$end
#1000
1!
#2000
0!
1#
#3000
1"
1!
0#
1$
#4000
0!
#5000
x"
1!
0$
#6000
0!
#7000
0"
1!
1#
#8000
0!
#9000
1"
1!
0#
1$
#10000
0!
#11000
0"
1!
1#
0$
#12000
0!
#13000
x"
1!
1$
#14000
0!
#15000
0"
1!
0$
#16000
0!
#17000
1"
1!
0#
1$
#18000
0!
#19000
x"
1!
0$
